{"photos":{"page":1,"pages":2010,"perpage":100,"total":"200968","photo":[{"id":"44812918754","owner":"132189592@N05","secret":"5f162c99e1","server":"1961","farm":2,"title":"\u041f\u043e\u0447\u0435\u043c\u0443 \u043a\u043e\u0448\u043a\u0438 \u043b\u044e\u0431\u044f\u0442 \u043f\u0430\u043a\u0435\u0442\u044b \u0438 \u043a\u043e\u0440\u043e\u0431\u043a\u0438","ispublic":1,"isfriend":0,"isfamily":0},{"id":"43721005870","owner":"143871096@N08","secret":"ac8e103533","server":"1976","farm":2,"title":"Scan13206","ispublic":1,"isfriend":0,"isfamily":0},{"id":"31665392398","owner":"127513401@N05","secret":"dd428b47ea","server":"1911","farm":2,"title":"Little furry cat","ispublic":1,"isfriend":0,"isfamily":0},{"id":"31665392028","owner":"127513401@N05","secret":"ce1a47c500","server":"1917","farm":2,"title":"Little furry cat","ispublic":1,"isfriend":0,"isfamily":0},{"id":"43720577760","owner":"167662687@N06","secret":"5658cb142a","server":"1972","farm":2,"title":"013 Very angry Mama bobcat","ispublic":1,"isfriend":0,"isfamily":0},{"id":"44623869155","owner":"148716065@N05","secret":"61d325a665","server":"1958","farm":2,"title":"TMF_CatTherapy-13","ispublic":1,"isfriend":0,"isfamily":0},{"id":"30596971607","owner":"148716065@N05","secret":"c51162eb80","server":"1901","farm":2,"title":"TMF_CatTherapy-14","ispublic":1,"isfriend":0,"isfamily":0},{"id":"43720380810","owner":"142209117@N07","secret":"884106d53b","server":"1918","farm":2,"title":"Sleepy Sasha","ispublic":1,"isfriend":0,"isfamily":0},{"id":"30596827027","owner":"38370440@N03","secret":"fb03d47e9c","server":"1940","farm":2,"title":"20181024_155419","ispublic":1,"isfriend":0,"isfamily":0},{"id":"45487201152","owner":"38370440@N03","secret":"8016a10b1a","server":"1937","farm":2,"title":"20181024_155815","ispublic":1,"isfriend":0,"isfamily":0},{"id":"45487192872","owner":"151599185@N04","secret":"95539d7c91","server":"1918","farm":2,"title":"","ispublic":1,"isfriend":0,"isfamily":0},{"id":"31665000608","owner":"148980001@N04","secret":"d9046f8875","server":"1936","farm":2,"title":"NECESITA ADOPCION RESPONSABLE. GRACIAS.","ispublic":1,"isfriend":0,"isfamily":0},{"id":"31664846708","owner":"56558311@N03","secret":"f460c0a140","server":"1906","farm":2,"title":"You're the night kid!","ispublic":1,"isfriend":0,"isfamily":0},{"id":"45486989692","owner":"165463198@N03","secret":"4b0e4283c0","server":"1946","farm":2,"title":"katten-med-bl-yne-2366_13607042863_o","ispublic":1,"isfriend":0,"isfamily":0},{"id":"45537379671","owner":"7563409@N08","secret":"cfa44b9e4c","server":"1909","farm":2,"title":"DSC00664","ispublic":1,"isfriend":0,"isfamily":0},{"id":"45537375481","owner":"50946698@N04","secret":"7da9099057","server":"1922","farm":2,"title":"Pom Pom Fight","ispublic":1,"isfriend":0,"isfamily":0},{"id":"45537335871","owner":"7563409@N08","secret":"e239d1e6a2","server":"1942","farm":2,"title":"DSC00667","ispublic":1,"isfriend":0,"isfamily":0},{"id":"45537309111","owner":"35652310@N00","secret":"9969e8f8fb","server":"1908","farm":2,"title":"NL* Titran's Blueberry female kitten blue tabby & white 7 weeks old","ispublic":1,"isfriend":0,"isfamily":0},{"id":"45537306551","owner":"35652310@N00","secret":"8f7c7bd383","server":"1913","farm":2,"title":"NL* Titran's Blueberry female kitten blue tabby & white 7 weeks old","ispublic":1,"isfriend":0,"isfamily":0},{"id":"30596318607","owner":"35652310@N00","secret":"1474cd5fb3","server":"1926","farm":2,"title":"NL* Titran's Barbarella female kitten 7 weeks old black tabby & white","ispublic":1,"isfriend":0,"isfamily":0},{"id":"44623166485","owner":"35652310@N00","secret":"af3e8fe2d1","server":"1935","farm":2,"title":"NL* Titran's Balzac male kitten blue tabby & white 7 weeks old","ispublic":1,"isfriend":0,"isfamily":0},{"id":"44811653664","owner":"35652310@N00","secret":"b4015cfdc2","server":"1914","farm":2,"title":"NL* Titran's Balzac male kitten blue tabby & white 7 weeks old","ispublic":1,"isfriend":0,"isfamily":0},{"id":"31664567538","owner":"35652310@N00","secret":"40340e208a","server":"1976","farm":2,"title":"NL* Titran's Berlioz  male kitten black tabby & white 7 weeks old","ispublic":1,"isfriend":0,"isfamily":0},{"id":"31664480988","owner":"35652310@N00","secret":"fe85781f32","server":"1925","farm":2,"title":"NL* Titran's Baroness Blixen female kitten black tabby & white 7 weeks old","ispublic":1,"isfriend":0,"isfamily":0},{"id":"31664480868","owner":"35652310@N00","secret":"e1a92c7bd5","server":"1907","farm":2,"title":"NL* Titran's Baroness Blixen female kitten black tabby & white 7 weeks old","ispublic":1,"isfriend":0,"isfamily":0},{"id":"31664476718","owner":"35652310@N00","secret":"a91a46d037","server":"1901","farm":2,"title":"NL* Titran's Baroness Blixen female kitten black tabby & white 7 weeks old","ispublic":1,"isfriend":0,"isfamily":0},{"id":"45486335212","owner":"112365985@N06","secret":"0a2447dd42","server":"1915","farm":2,"title":"Cute kitten","ispublic":1,"isfriend":0,"isfamily":0},{"id":"45486334722","owner":"112365985@N06","secret":"707e19902c","server":"1973","farm":2,"title":"Cute kitten","ispublic":1,"isfriend":0,"isfamily":0},{"id":"45486193842","owner":"165451718@N03","secret":"296336bdf0","server":"1973","farm":2,"title":"1472830686888.jpg","ispublic":1,"isfriend":0,"isfamily":0},{"id":"44622560445","owner":"165451718@N03","secret":"d6fb3c7277","server":"1963","farm":2,"title":"1472830686888.jpg","ispublic":1,"isfriend":0,"isfamily":0},{"id":"31663907198","owner":"157434537@N08","secret":"292062f210","server":"1946","farm":2,"title":"IMG-20181023-WA0005","ispublic":1,"isfriend":0,"isfamily":0},{"id":"44622485275","owner":"151109375@N08","secret":"1d7da40763","server":"1945","farm":2,"title":"A beautiful Caracal (Caracal caracal), seen at dusk at the end of our afternoon game drive, pauses to look back before disappearing into the vegetation along the side of the road","ispublic":1,"isfriend":0,"isfamily":0},{"id":"30595635517","owner":"167636869@N03","secret":"70c8fbfbdc","server":"1978","farm":2,"title":"Noise_20171112_120207__IMG2092","ispublic":1,"isfriend":0,"isfamily":0},{"id":"30595561777","owner":"87560163@N03","secret":"f282d89d6d","server":"1937","farm":2,"title":"annoying human","ispublic":1,"isfriend":0,"isfamily":0},{"id":"44810661034","owner":"167636869@N03","secret":"73f0750ec8","server":"1926","farm":2,"title":"Noise_20151122_160449","ispublic":1,"isfriend":0,"isfamily":0},{"id":"43718871820","owner":"167636869@N03","secret":"e2724591a1","server":"1940","farm":2,"title":"Noise_20151122_160622","ispublic":1,"isfriend":0,"isfamily":0},{"id":"43714402990","owner":"52156779@N02","secret":"4c6ab6db92","server":"1980","farm":2,"title":"111705_1439","ispublic":1,"isfriend":0,"isfamily":0},{"id":"45485635712","owner":"167636869@N03","secret":"a5ff578054","server":"1972","farm":2,"title":"Noise_20151122_145750","ispublic":1,"isfriend":0,"isfamily":0},{"id":"43718756110","owner":"167636869@N03","secret":"6755563dc5","server":"1927","farm":2,"title":"Noise_20151121_171150","ispublic":1,"isfriend":0,"isfamily":0},{"id":"45485603572","owner":"167636869@N03","secret":"798650878d","server":"1959","farm":2,"title":"Noise_20151121_171111","ispublic":1,"isfriend":0,"isfamily":0},{"id":"43718631290","owner":"71858383@N00","secret":"222d5c480b","server":"1925","farm":2,"title":"","ispublic":1,"isfriend":0,"isfamily":0},{"id":"44621794815","owner":"135405598@N05","secret":"d7bf2f762b","server":"1967","farm":2,"title":"Rox in a Box 2","ispublic":1,"isfriend":0,"isfamily":0},{"id":"44621791565","owner":"135405598@N05","secret":"deb2fbd545","server":"1914","farm":2,"title":"Rox in a Box","ispublic":1,"isfriend":0,"isfamily":0},{"id":"31663197188","owner":"155209940@N07","secret":"e5e9b2d882","server":"1960","farm":2,"title":"P1230727","ispublic":1,"isfriend":0,"isfamily":0},{"id":"44809986864","owner":"114975005@N05","secret":"2270a24957","server":"1902","farm":2,"title":"Bild 157249_01","ispublic":1,"isfriend":0,"isfamily":0},{"id":"44809950544","owner":"7513477@N08","secret":"9765419058","server":"1952","farm":2,"title":"Cats","ispublic":1,"isfriend":0,"isfamily":0},{"id":"44621411215","owner":"151241193@N04","secret":"bb8e70064a","server":"1912","farm":2,"title":"IMG_0540","ispublic":1,"isfriend":0,"isfamily":0},{"id":"30594457307","owner":"138213735@N07","secret":"3674fcd410","server":"1903","farm":2,"title":"","ispublic":1,"isfriend":0,"isfamily":0},{"id":"43717860160","owner":"138213735@N07","secret":"dcbdf20fc5","server":"1972","farm":2,"title":"","ispublic":1,"isfriend":0,"isfamily":0},{"id":"45484645102","owner":"138213735@N07","secret":"3cab80af13","server":"1967","farm":2,"title":"","ispublic":1,"isfriend":0,"isfamily":0},{"id":"45535391921","owner":"138213735@N07","secret":"228a28e0a2","server":"1973","farm":2,"title":"","ispublic":1,"isfriend":0,"isfamily":0},{"id":"44809725524","owner":"138213735@N07","secret":"b3e947d14a","server":"1915","farm":2,"title":"","ispublic":1,"isfriend":0,"isfamily":0},{"id":"44621252615","owner":"138213735@N07","secret":"e2b1ec618d","server":"1922","farm":2,"title":"","ispublic":1,"isfriend":0,"isfamily":0},{"id":"43717849660","owner":"138213735@N07","secret":"9a45e89370","server":"1946","farm":2,"title":"","ispublic":1,"isfriend":0,"isfamily":0},{"id":"44809722804","owner":"138213735@N07","secret":"ba706c6cde","server":"1935","farm":2,"title":"","ispublic":1,"isfriend":0,"isfamily":0},{"id":"43717845930","owner":"138213735@N07","secret":"21a149782a","server":"1955","farm":2,"title":"","ispublic":1,"isfriend":0,"isfamily":0},{"id":"31662697758","owner":"153289030@N04","secret":"4256f88419","server":"1963","farm":2,"title":"000035480003","ispublic":1,"isfriend":0,"isfamily":0},{"id":"44809654834","owner":"147564092@N02","secret":"3ae44dd0a9","server":"1950","farm":2,"title":"#CatMeows: @catsu : @onatwashere https:\/\/t.co\/UkuA9QiJ1L (via Twitter http:\/\/twitter.com\/catsu\/status\/1054427047437783042) https:\/\/ift.tt\/2yvIvjo","ispublic":1,"isfriend":0,"isfamily":0},{"id":"43717791460","owner":"22068466@N04","secret":"c02e91f4e5","server":"1952","farm":2,"title":"Lance","ispublic":1,"isfriend":0,"isfamily":0},{"id":"44809646814","owner":"22068466@N04","secret":"e3c5d3ca29","server":"1901","farm":2,"title":"Lance","ispublic":1,"isfriend":0,"isfamily":0},{"id":"45535267391","owner":"80671284@N03","secret":"2d4789d680","server":"1929","farm":2,"title":"IMG_8733","ispublic":1,"isfriend":0,"isfamily":0},{"id":"43717756390","owner":"80671284@N03","secret":"45e7f2dd90","server":"1965","farm":2,"title":"IMG_8745","ispublic":1,"isfriend":0,"isfamily":0},{"id":"43717755690","owner":"80671284@N03","secret":"40f7d536c5","server":"1949","farm":2,"title":"IMG_8767","ispublic":1,"isfriend":0,"isfamily":0},{"id":"44809490594","owner":"31984487@N00","secret":"0f73773eca","server":"1973","farm":2,"title":"Zwei K\u00e4tzchen \/ Two Kittens","ispublic":1,"isfriend":0,"isfamily":0},{"id":"45535064001","owner":"99753978@N03","secret":"658baf4c92","server":"1978","farm":2,"title":"SCREAMING FEMALES KITTEN FOREVER & MOTHPUPPY","ispublic":1,"isfriend":0,"isfamily":0},{"id":"44809259274","owner":"56532547@N05","secret":"c3cffc099a","server":"1944","farm":2,"title":"C' EST MOI ? NON IL  BOUGE PAS ( mon double en peluche)","ispublic":1,"isfriend":0,"isfamily":0},{"id":"31662285098","owner":"78287959@N07","secret":"05768edcd5","server":"1923","farm":2,"title":"PA130957","ispublic":1,"isfriend":0,"isfamily":0},{"id":"45484068062","owner":"78287959@N07","secret":"c0fb32a089","server":"1924","farm":2,"title":"PA120881","ispublic":1,"isfriend":0,"isfamily":0},{"id":"43717339590","owner":"78287959@N07","secret":"a00332945f","server":"1966","farm":2,"title":"PA120883","ispublic":1,"isfriend":0,"isfamily":0},{"id":"45534828911","owner":"138310540@N03","secret":"098de9e262","server":"1932","farm":2,"title":"IMG_0652","ispublic":1,"isfriend":0,"isfamily":0},{"id":"44620687725","owner":"78287959@N07","secret":"910556de9f","server":"1973","farm":2,"title":"PA100723","ispublic":1,"isfriend":0,"isfamily":0},{"id":"45534828171","owner":"138310540@N03","secret":"801ddb6e35","server":"1952","farm":2,"title":"IMG_0655","ispublic":1,"isfriend":0,"isfamily":0},{"id":"45534828091","owner":"78287959@N07","secret":"c2f1784ed1","server":"1909","farm":2,"title":"PA100724","ispublic":1,"isfriend":0,"isfamily":0},{"id":"31662238188","owner":"138310540@N03","secret":"7462449128","server":"1967","farm":2,"title":"IMG_0667","ispublic":1,"isfriend":0,"isfamily":0},{"id":"31662236928","owner":"138310540@N03","secret":"5e9a121f19","server":"1934","farm":2,"title":"IMG_0669","ispublic":1,"isfriend":0,"isfamily":0},{"id":"31662236268","owner":"138310540@N03","secret":"f5e79931ac","server":"1916","farm":2,"title":"IMG_0670","ispublic":1,"isfriend":0,"isfamily":0},{"id":"45534819581","owner":"138310540@N03","secret":"c4188c5fc5","server":"1934","farm":2,"title":"IMG_0671","ispublic":1,"isfriend":0,"isfamily":0},{"id":"30593802537","owner":"86125988@N02","secret":"96db0da81b","server":"1937","farm":2,"title":"9 months","ispublic":1,"isfriend":0,"isfamily":0},{"id":"43717269520","owner":"86125988@N02","secret":"27f3ab3c40","server":"1967","farm":2,"title":"9 months","ispublic":1,"isfriend":0,"isfamily":0},{"id":"31662195218","owner":"86125988@N02","secret":"75b9bd84a5","server":"1957","farm":2,"title":"9 months","ispublic":1,"isfriend":0,"isfamily":0},{"id":"31662185718","owner":"78287959@N07","secret":"178f9795c1","server":"1906","farm":2,"title":"PA080463","ispublic":1,"isfriend":0,"isfamily":0},{"id":"31662166588","owner":"165339554@N07","secret":"4b8ca31970","server":"1980","farm":2,"title":"DSC_5886","ispublic":1,"isfriend":0,"isfamily":0},{"id":"44620397755","owner":"165453874@N05","secret":"fdbaf4b4e1","server":"1938","farm":2,"title":"DSC00005","ispublic":1,"isfriend":0,"isfamily":0},{"id":"31661931748","owner":"52742772@N02","secret":"a1494d9452","server":"1908","farm":2,"title":"2018.10.24 \u5c11\u5e74\u732b","ispublic":1,"isfriend":0,"isfamily":0},{"id":"45483731362","owner":"52742772@N02","secret":"39d807c8c5","server":"1914","farm":2,"title":"2018.10.24 \u5c11\u5e74\u732b","ispublic":1,"isfriend":0,"isfamily":0},{"id":"31661927148","owner":"52742772@N02","secret":"96c6808558","server":"1945","farm":2,"title":"2018.10.24 \u5c11\u5e74\u732b","ispublic":1,"isfriend":0,"isfamily":0},{"id":"45485535352","owner":"121949668@N08","secret":"ea2fa11227","server":"1962","farm":2,"title":"sunrays on Russo's ears","ispublic":1,"isfriend":0,"isfamily":0},{"id":"44808624904","owner":"92376350@N03","secret":"63aceb96e1","server":"1970","farm":2,"title":"Boule de malice","ispublic":1,"isfriend":0,"isfamily":0},{"id":"44808618154","owner":"92376350@N03","secret":"db5a7693c0","server":"1948","farm":2,"title":"Boule de malice","ispublic":1,"isfriend":0,"isfamily":0},{"id":"44620076485","owner":"156307141@N05","secret":"1cb3328815","server":"1963","farm":2,"title":"1982 090","ispublic":1,"isfriend":0,"isfamily":0},{"id":"31665652218","owner":"156632404@N03","secret":"32eb64d540","server":"1960","farm":2,"title":"Parc merveilleux 125","ispublic":1,"isfriend":0,"isfamily":0},{"id":"44623950255","owner":"167662687@N06","secret":"261c5edfc3","server":"1924","farm":2,"title":"012 Leave my kitten alone","ispublic":1,"isfriend":0,"isfamily":0},{"id":"45535670441","owner":"39666460@N03","secret":"f89c47ddab","server":"1957","farm":2,"title":"","ispublic":1,"isfriend":0,"isfamily":0},{"id":"44808833934","owner":"35311095@N00","secret":"e2aa880fea","server":"1950","farm":2,"title":"Curious Cat","ispublic":1,"isfriend":0,"isfamily":0},{"id":"30593534647","owner":"140559320@N08","secret":"3573b5e532","server":"1923","farm":2,"title":"Good night kitten by Petaaa MORE MEMES","ispublic":1,"isfriend":0,"isfamily":0},{"id":"43716817820","owner":"145891881@N02","secret":"307307aa74","server":"1942","farm":2,"title":"Hire Cat Boarding Service in Kent","ispublic":1,"isfriend":0,"isfamily":0}]},"stat":"ok"}